Morelle Tinsley: Functions and plot_ly figures from Flight Data
…
snglorgn <- function(flight_numbers) {
  flight_numbers %>%
    filter(origin == "JFK")
}

snglorgn(flights)

# A tibble: 111,279 x 19
    year month   day dep_time sched_dep_time dep_delay arr_time
   <int> <int> <int>    <int>          <int>     <dbl>    <int>
 1  2013     1     1      542            540         2      923
 2  2013     1     1      544            545        -1     1004
 3  2013     1     1      557            600        -3      838
 4  2013     1     1      558            600        -2      849
 5  2013     1     1      558            600        -2      853
 6  2013     1     1      558            600        -2      924
 7  2013     1     1      559            559         0      702
 8  2013     1     1      606            610        -4      837
 9  2013     1     1      611            600        11      945
10  2013     1     1      613            610         3      925
#  with 111,269 more rows, and 12 more variables:
#   sched_arr_time <int>, arr_delay <dbl>, carrier <chr>,
#   flight <int>, tailnum <chr>, origin <chr>, dest <chr>,
#   air_time <dbl>, distance <dbl>, hour <dbl>, minute <dbl>,
#   time_hour <dttm>
…
